[
    {
        "id": 1,
        "maxLevel": 3,
        "HCNIILDMFNM": 41645015,
        "IFLGLLEHDNL": 2557416247,
        "descParam": [
            "30;80;20;3",
            "30;100;20;3",
            "30;120;20;3"
        ],
        "HBPNPFPCLGH": 4886234668124458039,
        "unlockWorldLevel": 1002,
        "PACDNBGOPAB": [
            100301,
            200301
        ],
        "ABPEKGBELEK": "BRICK_BREAKER_TYPE_FAST_BALL"
    },
    {
        "id": 2,
        "maxLevel": 1,
        "HCNIILDMFNM": 965984815,
        "IFLGLLEHDNL": 1126073943,
        "descParam": [
            "3;30;4;50",
            "",
            ""
        ],
        "HBPNPFPCLGH": 17388950997036801191,
        "PACDNBGOPAB": [],
        "ABPEKGBELEK": "BRICK_BREAKER_TYPE_EXTRA_BALL"
    },
    {
        "id": 3,
        "maxLevel": 3,
        "HCNIILDMFNM": 3250090343,
        "IFLGLLEHDNL": 3197077007,
        "descParam": [
            "30;100",
            "30;125",
            "30;150"
        ],
        "HBPNPFPCLGH": 13018450851885065537,
        "unlockWorldLevel": 1001,
        "PACDNBGOPAB": [
            100301,
            200301
        ],
        "ABPEKGBELEK": "BRICK_BREAKER_TYPE_BONUS"
    },
    {
        "id": 4,
        "maxLevel": 1,
        "HKDDDPECLDG": 8,
        "HCNIILDMFNM": 1881370423,
        "IFLGLLEHDNL": 190201727,
        "descParam": [
            "5;6;4",
            "",
            ""
        ],
        "HBPNPFPCLGH": 16589178105058227634,
        "PACDNBGOPAB": [],
        "ABPEKGBELEK": "BRICK_BREAKER_TYPE_MISSILE"
    },
    {
        "id": 5,
        "maxLevel": 1,
        "HCNIILDMFNM": 2498217095,
        "IFLGLLEHDNL": 2861919423,
        "descParam": [
            "10",
            "",
            ""
        ],
        "HBPNPFPCLGH": 18112754747234720910,
        "unlockWorldLevel": 1001,
        "PACDNBGOPAB": [],
        "ABPEKGBELEK": "BRICK_BREAKER_TYPE_WIDER_PADDLE"
    },
    {
        "id": 6,
        "maxLevel": 1,
        "HCNIILDMFNM": 3591731935,
        "IFLGLLEHDNL": 517651095,
        "descParam": [
            "30;6;60",
            "",
            ""
        ],
        "HBPNPFPCLGH": 3988254612345434203,
        "PACDNBGOPAB": [],
        "ABPEKGBELEK": "BRICK_BREAKER_TYPE_SAVER_WALL"
    },
    {
        "id": 7,
        "maxLevel": 1,
        "HCNIILDMFNM": 403874399,
        "IFLGLLEHDNL": 1452718167,
        "descParam": [
            "20",
            "",
            ""
        ],
        "HBPNPFPCLGH": 2112627261773074659,
        "unlockWorldLevel": 1001,
        "PACDNBGOPAB": [],
        "ABPEKGBELEK": "BRICK_BREAKER_TYPE_FAST_AVATAR"
    },
    {
        "id": 8,
        "maxLevel": 2,
        "HCNIILDMFNM": 3157152087,
        "IFLGLLEHDNL": 468463127,
        "descParam": [
            "10;8;4",
            "10;10;4",
            ""
        ],
        "HBPNPFPCLGH": 16589178105058227634,
        "unlockWorldLevel": 1002,
        "PACDNBGOPAB": [
            100301
        ],
        "ABPEKGBELEK": "BRICK_BREAKER_TYPE_SUPER_MISSILE"
    }
]