[
    {
        "id": 1,
        "NMKOPLLKKBB": true,
        "NJEPLOJHBCE": "CARD_TAG",
        "ECBFGEPMGAE": 2898754250,
        "paramList": [
            301,
            302,
            303,
            304,
            307,
            305,
            306
        ],
        "PDJFFGIJFFI": 1702719397
    },
    {
        "id": 2,
        "NMKOPLLKKBB": true,
        "NJEPLOJHBCE": "CARD_TAG",
        "ECBFGEPMGAE": 4130406122,
        "paramList": [
            201,
            202,
            203,
            204,
            205
        ],
        "BBEEAJPEGEH": true,
        "PDJFFGIJFFI": 1208187341
    },
    {
        "id": 3,
        "NMKOPLLKKBB": true,
        "NJEPLOJHBCE": "CARD_TAG",
        "ECBFGEPMGAE": 4139357962,
        "paramList": [
            401,
            402,
            403,
            404,
            501,
            502,
            503
        ],
        "PDJFFGIJFFI": 3206503541
    },
    {
        "id": 4,
        "MPPMFEJLBOK": true,
        "NJEPLOJHBCE": "CARD_TYPE",
        "ECBFGEPMGAE": 2068225106,
        "paramList": [
            2,
            5,
            6
        ],
        "PDJFFGIJFFI": 3839654221
    },
    {
        "id": 5,
        "MPPMFEJLBOK": true,
        "NJEPLOJHBCE": "CARD_TAG",
        "ECBFGEPMGAE": 2435174714,
        "paramList": [
            3,
            4,
            6,
            101,
            102,
            103,
            104,
            105
        ],
        "BBEEAJPEGEH": true,
        "PDJFFGIJFFI": 1928235365
    },
    {
        "id": 6,
        "MPPMFEJLBOK": true,
        "NJEPLOJHBCE": "CARD_COST",
        "ECBFGEPMGAE": 3654412338,
        "paramList": [
            0,
            1,
            2,
            3,
            4,
            5,
            6
        ],
        "BBEEAJPEGEH": true,
        "PDJFFGIJFFI": 2503424845
    }
]