[
    {
        "hp": 50,
        "GOAKKENJPJO": 1,
        "FIHLPNNLKAG": 11595881032112703478,
        "PLJDNGEEPBK": "Switch_GCG_Hili_None_01_Club",
        "id": 1001,
        "cardType": "GCG_CARD_CHARACTER",
        "nameTextMapHash": 1835448835,
        "descTextMapHash": 413563292,
        "LKIILDFIPKC": [
            "GCG_TAG_ELEMENT_PYRO",
            "GCG_TAG_WEAPON_SWORD",
            "GCG_TAG_CAMP_MONSTER",
            "GCG_TAG_CAMP_HILICHURL",
            "GCG_TAG_NONE"
        ],
        "skillList": [
            80
        ]
    },
    {
        "hp": 50,
        "GOAKKENJPJO": 1,
        "FIHLPNNLKAG": 11595881032112703478,
        "PLJDNGEEPBK": "Switch_GCG_Hili_None_01_Club",
        "IGBHFMOKLDO": true,
        "id": 1002,
        "cardType": "GCG_CARD_CHARACTER",
        "nameTextMapHash": 1183929331,
        "descTextMapHash": 595281076,
        "LKIILDFIPKC": [
            "GCG_TAG_ELEMENT_CRYO",
            "GCG_TAG_WEAPON_BOW",
            "GCG_TAG_CAMP_MONSTER",
            "GCG_TAG_CAMP_HILICHURL",
            "GCG_TAG_NONE"
        ],
        "skillList": [
            80
        ]
    },
    {
        "hp": 50,
        "GOAKKENJPJO": 1,
        "FIHLPNNLKAG": 11595881032112703478,
        "PLJDNGEEPBK": "Switch_GCG_Hili_None_01_Club",
        "id": 1003,
        "cardType": "GCG_CARD_CHARACTER",
        "nameTextMapHash": 782437499,
        "descTextMapHash": 4283862172,
        "LKIILDFIPKC": [
            "GCG_TAG_ELEMENT_PYRO",
            "GCG_TAG_WEAPON_SWORD",
            "GCG_TAG_CAMP_MONSTER",
            "GCG_TAG_CAMP_HILICHURL",
            "GCG_TAG_NONE"
        ],
        "skillList": [
            80,
            1130211
        ]
    },
    {
        "hp": 10,
        "GOAKKENJPJO": 2,
        "FIHLPNNLKAG": 748931626096353712,
        "PLJDNGEEPBK": "Switch_Ganyu",
        "id": 1101,
        "cardType": "GCG_CARD_CHARACTER",
        "nameTextMapHash": 3061219907,
        "descTextMapHash": 2499957556,
        "LKIILDFIPKC": [
            "GCG_TAG_ELEMENT_CRYO",
            "GCG_TAG_WEAPON_BOW",
            "GCG_TAG_NATION_LIYUE",
            "GCG_TAG_NONE",
            "GCG_TAG_NONE"
        ],
        "skillList": [
            11011,
            11012,
            11013,
            11014
        ],
        "DBNHFOFHBHA": true
    },
    {
        "hp": 10,
        "GOAKKENJPJO": 3,
        "FIHLPNNLKAG": 2477315919238197710,
        "PLJDNGEEPBK": "Switch_Diona",
        "id": 1102,
        "cardType": "GCG_CARD_CHARACTER",
        "nameTextMapHash": 4240059515,
        "descTextMapHash": 1041041068,
        "LKIILDFIPKC": [
            "GCG_TAG_ELEMENT_CRYO",
            "GCG_TAG_WEAPON_BOW",
            "GCG_TAG_NATION_MONDSTADT",
            "GCG_TAG_NONE",
            "GCG_TAG_NONE"
        ],
        "skillList": [
            11021,
            11022,
            11023
        ],
        "DBNHFOFHBHA": true
    },
    {
        "hp": 10,
        "GOAKKENJPJO": 2,
        "FIHLPNNLKAG": 4520623844536451040,
        "PLJDNGEEPBK": "Switch_Kaeya",
        "id": 1103,
        "cardType": "GCG_CARD_CHARACTER",
        "nameTextMapHash": 2566603099,
        "descTextMapHash": 1060447580,
        "LKIILDFIPKC": [
            "GCG_TAG_ELEMENT_CRYO",
            "GCG_TAG_WEAPON_SWORD",
            "GCG_TAG_NATION_MONDSTADT",
            "GCG_TAG_NONE",
            "GCG_TAG_NONE"
        ],
        "skillList": [
            11031,
            11032,
            11033
        ],
        "DBNHFOFHBHA": true
    },
    {
        "hp": 10,
        "GOAKKENJPJO": 3,
        "FIHLPNNLKAG": 13824835289892007007,
        "PLJDNGEEPBK": "Switch_Chongyun",
        "id": 1104,
        "cardType": "GCG_CARD_CHARACTER",
        "nameTextMapHash": 3902531243,
        "descTextMapHash": 2158949916,
        "LKIILDFIPKC": [
            "GCG_TAG_ELEMENT_CRYO",
            "GCG_TAG_WEAPON_CLAYMORE",
            "GCG_TAG_NATION_LIYUE",
            "GCG_TAG_NONE",
            "GCG_TAG_NONE"
        ],
        "skillList": [
            11041,
            11042,
            11043
        ],
        "DBNHFOFHBHA": true
    },
    {
        "hp": 10,
        "GOAKKENJPJO": 3,
        "FIHLPNNLKAG": 1217556001378495034,
        "PLJDNGEEPBK": "Switch_Ayaka",
        "id": 1105,
        "cardType": "GCG_CARD_CHARACTER",
        "nameTextMapHash": 1424937891,
        "descTextMapHash": 3318216076,
        "LKIILDFIPKC": [
            "GCG_TAG_ELEMENT_CRYO",
            "GCG_TAG_WEAPON_SWORD",
            "GCG_TAG_NATION_INAZUMA",
            "GCG_TAG_NONE",
            "GCG_TAG_NONE"
        ],
        "skillList": [
            11051,
            11052,
            11053,
            11054
        ],
        "DBNHFOFHBHA": true
    },
    {
        "hp": 10,
        "GOAKKENJPJO": 2,
        "FIHLPNNLKAG": 12394926631967499900,
        "PLJDNGEEPBK": "Switch_Eula",
        "id": 1106,
        "cardType": "GCG_CARD_CHARACTER",
        "nameTextMapHash": 3601498363,
        "descTextMapHash": 2777978188,
        "LKIILDFIPKC": [
            "GCG_TAG_ELEMENT_CRYO",
            "GCG_TAG_WEAPON_CLAYMORE",
            "GCG_TAG_NATION_MONDSTADT",
            "GCG_TAG_NONE",
            "GCG_TAG_NONE"
        ],
        "skillList": [
            11061,
            11062,
            11063
        ],
        "DBNHFOFHBHA": true
    },
    {
        "hp": 10,
        "GOAKKENJPJO": 3,
        "FIHLPNNLKAG": 13207249584257818431,
        "PLJDNGEEPBK": "Switch_Barbara",
        "id": 1201,
        "cardType": "GCG_CARD_CHARACTER",
        "nameTextMapHash": 3065471483,
        "descTextMapHash": 4206654324,
        "LKIILDFIPKC": [
            "GCG_TAG_ELEMENT_HYDRO",
            "GCG_TAG_WEAPON_CATALYST",
            "GCG_TAG_NATION_MONDSTADT",
            "GCG_TAG_NONE",
            "GCG_TAG_NONE"
        ],
        "skillList": [
            12011,
            12012,
            12013
        ],
        "DBNHFOFHBHA": true
    },
    {
        "hp": 10,
        "GOAKKENJPJO": 2,
        "FIHLPNNLKAG": 8615996637158923347,
        "PLJDNGEEPBK": "Switch_Xingqiu",
        "id": 1202,
        "cardType": "GCG_CARD_CHARACTER",
        "nameTextMapHash": 1799449267,
        "descTextMapHash": 565498684,
        "LKIILDFIPKC": [
            "GCG_TAG_ELEMENT_HYDRO",
            "GCG_TAG_WEAPON_SWORD",
            "GCG_TAG_NATION_LIYUE",
            "GCG_TAG_NONE",
            "GCG_TAG_NONE"
        ],
        "skillList": [
            12021,
            12022,
            12023
        ],
        "DBNHFOFHBHA": true
    },
    {
        "hp": 10,
        "GOAKKENJPJO": 3,
        "FIHLPNNLKAG": 11384059374610752372,
        "PLJDNGEEPBK": "Switch_Mona",
        "id": 1203,
        "cardType": "GCG_CARD_CHARACTER",
        "nameTextMapHash": 1598282587,
        "descTextMapHash": 2323159780,
        "LKIILDFIPKC": [
            "GCG_TAG_ELEMENT_HYDRO",
            "GCG_TAG_WEAPON_CATALYST",
            "GCG_TAG_NATION_MONDSTADT",
            "GCG_TAG_NONE",
            "GCG_TAG_NONE"
        ],
        "skillList": [
            12031,
            12032,
            12033,
            12034
        ],
        "DBNHFOFHBHA": true
    },
    {
        "hp": 10,
        "GOAKKENJPJO": 2,
        "FIHLPNNLKAG": 17138336087516506305,
        "PLJDNGEEPBK": "Switch_Kokomi",
        "id": 1205,
        "cardType": "GCG_CARD_CHARACTER",
        "nameTextMapHash": 1717079779,
        "descTextMapHash": 3836348244,
        "LKIILDFIPKC": [
            "GCG_TAG_ELEMENT_HYDRO",
            "GCG_TAG_WEAPON_CATALYST",
            "GCG_TAG_NATION_INAZUMA",
            "GCG_TAG_NONE",
            "GCG_TAG_NONE"
        ],
        "skillList": [
            12051,
            12052,
            12053
        ],
        "DBNHFOFHBHA": true
    },
    {
        "hp": 10,
        "GOAKKENJPJO": 3,
        "FIHLPNNLKAG": 15379938178103653812,
        "PLJDNGEEPBK": "Switch_Diluc",
        "id": 1301,
        "cardType": "GCG_CARD_CHARACTER",
        "nameTextMapHash": 461926547,
        "descTextMapHash": 3463671060,
        "LKIILDFIPKC": [
            "GCG_TAG_ELEMENT_PYRO",
            "GCG_TAG_WEAPON_CLAYMORE",
            "GCG_TAG_NATION_MONDSTADT",
            "GCG_TAG_NONE",
            "GCG_TAG_NONE"
        ],
        "skillList": [
            13011,
            13012,
            13013
        ],
        "DBNHFOFHBHA": true
    },
    {
        "hp": 10,
        "GOAKKENJPJO": 2,
        "FIHLPNNLKAG": 9848690148718834366,
        "PLJDNGEEPBK": "Switch_Xiangling",
        "id": 1302,
        "cardType": "GCG_CARD_CHARACTER",
        "nameTextMapHash": 577501795,
        "descTextMapHash": 266415180,
        "LKIILDFIPKC": [
            "GCG_TAG_ELEMENT_PYRO",
            "GCG_TAG_WEAPON_POLE",
            "GCG_TAG_NATION_LIYUE",
            "GCG_TAG_NONE",
            "GCG_TAG_NONE"
        ],
        "skillList": [
            13021,
            13022,
            13023
        ],
        "DBNHFOFHBHA": true
    },
    {
        "hp": 10,
        "GOAKKENJPJO": 2,
        "FIHLPNNLKAG": 15893093546583034388,
        "PLJDNGEEPBK": "Switch_Bennett",
        "id": 1303,
        "cardType": "GCG_CARD_CHARACTER",
        "nameTextMapHash": 4269319299,
        "descTextMapHash": 964759332,
        "LKIILDFIPKC": [
            "GCG_TAG_ELEMENT_PYRO",
            "GCG_TAG_WEAPON_SWORD",
            "GCG_TAG_NATION_MONDSTADT",
            "GCG_TAG_NONE",
            "GCG_TAG_NONE"
        ],
        "skillList": [
            13031,
            13032,
            13033
        ],
        "DBNHFOFHBHA": true
    },
    {
        "hp": 10,
        "GOAKKENJPJO": 3,
        "FIHLPNNLKAG": 15760900379031840040,
        "PLJDNGEEPBK": "Switch_Yoimiya",
        "id": 1305,
        "cardType": "GCG_CARD_CHARACTER",
        "nameTextMapHash": 2945402323,
        "descTextMapHash": 452048396,
        "LKIILDFIPKC": [
            "GCG_TAG_ELEMENT_PYRO",
            "GCG_TAG_WEAPON_BOW",
            "GCG_TAG_NATION_INAZUMA",
            "GCG_TAG_NONE",
            "GCG_TAG_NONE"
        ],
        "skillList": [
            13051,
            13052,
            13053
        ],
        "DBNHFOFHBHA": true
    },
    {
        "hp": 10,
        "GOAKKENJPJO": 3,
        "FIHLPNNLKAG": 10984823545635225336,
        "PLJDNGEEPBK": "Switch_Klee",
        "id": 1306,
        "cardType": "GCG_CARD_CHARACTER",
        "nameTextMapHash": 367075467,
        "descTextMapHash": 1470907924,
        "LKIILDFIPKC": [
            "GCG_TAG_ELEMENT_PYRO",
            "GCG_TAG_WEAPON_CATALYST",
            "GCG_TAG_NATION_MONDSTADT",
            "GCG_TAG_NONE",
            "GCG_TAG_NONE"
        ],
        "skillList": [
            13061,
            13062,
            13063
        ],
        "DBNHFOFHBHA": true
    },
    {
        "hp": 10,
        "GOAKKENJPJO": 3,
        "FIHLPNNLKAG": 16546738094371496924,
        "PLJDNGEEPBK": "Switch_Fischl",
        "id": 1401,
        "cardType": "GCG_CARD_CHARACTER",
        "nameTextMapHash": 1567838547,
        "descTextMapHash": 1675953204,
        "LKIILDFIPKC": [
            "GCG_TAG_ELEMENT_ELECTRO",
            "GCG_TAG_WEAPON_BOW",
            "GCG_TAG_NATION_MONDSTADT",
            "GCG_TAG_NONE",
            "GCG_TAG_NONE"
        ],
        "skillList": [
            14011,
            14012,
            14013
        ],
        "DBNHFOFHBHA": true
    },
    {
        "hp": 10,
        "GOAKKENJPJO": 3,
        "FIHLPNNLKAG": 4764474515206424959,
        "PLJDNGEEPBK": "Switch_Razor",
        "id": 1402,
        "cardType": "GCG_CARD_CHARACTER",
        "nameTextMapHash": 3234104019,
        "descTextMapHash": 3073607980,
        "LKIILDFIPKC": [
            "GCG_TAG_ELEMENT_ELECTRO",
            "GCG_TAG_WEAPON_CLAYMORE",
            "GCG_TAG_NATION_MONDSTADT",
            "GCG_TAG_NONE",
            "GCG_TAG_NONE"
        ],
        "skillList": [
            14021,
            14022,
            14023
        ],
        "DBNHFOFHBHA": true
    },
    {
        "hp": 10,
        "GOAKKENJPJO": 3,
        "FIHLPNNLKAG": 11914158191147819621,
        "PLJDNGEEPBK": "Switch_Keqing",
        "id": 1403,
        "cardType": "GCG_CARD_CHARACTER",
        "nameTextMapHash": 3693197331,
        "descTextMapHash": 1358433164,
        "LKIILDFIPKC": [
            "GCG_TAG_ELEMENT_ELECTRO",
            "GCG_TAG_WEAPON_SWORD",
            "GCG_TAG_NATION_LIYUE",
            "GCG_TAG_NONE",
            "GCG_TAG_NONE"
        ],
        "skillList": [
            14031,
            14032,
            14033
        ],
        "DBNHFOFHBHA": true
    },
    {
        "hp": 10,
        "GOAKKENJPJO": 2,
        "FIHLPNNLKAG": 2685450635676699452,
        "PLJDNGEEPBK": "Switch_Cyno",
        "id": 1404,
        "cardType": "GCG_CARD_CHARACTER",
        "nameTextMapHash": 4290733483,
        "descTextMapHash": 2896881132,
        "LKIILDFIPKC": [
            "GCG_TAG_ELEMENT_ELECTRO",
            "GCG_TAG_WEAPON_POLE",
            "GCG_TAG_NATION_SUMERU",
            "GCG_TAG_NONE",
            "GCG_TAG_NONE"
        ],
        "skillList": [
            14041,
            14042,
            14043,
            14044
        ],
        "DBNHFOFHBHA": true
    },
    {
        "hp": 10,
        "GOAKKENJPJO": 3,
        "FIHLPNNLKAG": 7871071162141696486,
        "PLJDNGEEPBK": "Switch_Beidou",
        "id": 1405,
        "cardType": "GCG_CARD_CHARACTER",
        "nameTextMapHash": 2592096643,
        "descTextMapHash": 1256671188,
        "LKIILDFIPKC": [
            "GCG_TAG_ELEMENT_ELECTRO",
            "GCG_TAG_WEAPON_CLAYMORE",
            "GCG_TAG_NATION_LIYUE",
            "GCG_TAG_NONE",
            "GCG_TAG_NONE"
        ],
        "skillList": [
            14051,
            14052,
            14053,
            14054
        ],
        "DBNHFOFHBHA": true
    },
    {
        "hp": 10,
        "GOAKKENJPJO": 2,
        "FIHLPNNLKAG": 4815422358893867242,
        "PLJDNGEEPBK": "Switch_kujouSara",
        "id": 1406,
        "cardType": "GCG_CARD_CHARACTER",
        "nameTextMapHash": 3340042259,
        "descTextMapHash": 4148306364,
        "LKIILDFIPKC": [
            "GCG_TAG_ELEMENT_ELECTRO",
            "GCG_TAG_WEAPON_BOW",
            "GCG_TAG_NATION_INAZUMA",
            "GCG_TAG_NONE",
            "GCG_TAG_NONE"
        ],
        "skillList": [
            14061,
            14062,
            14063
        ],
        "DBNHFOFHBHA": true
    },
    {
        "hp": 10,
        "GOAKKENJPJO": 2,
        "FIHLPNNLKAG": 1766456191500283126,
        "PLJDNGEEPBK": "Switch_Sucrose",
        "id": 1501,
        "cardType": "GCG_CARD_CHARACTER",
        "nameTextMapHash": 892710019,
        "descTextMapHash": 84456876,
        "LKIILDFIPKC": [
            "GCG_TAG_ELEMENT_ANEMO",
            "GCG_TAG_WEAPON_CATALYST",
            "GCG_TAG_NATION_MONDSTADT",
            "GCG_TAG_NONE",
            "GCG_TAG_NONE"
        ],
        "skillList": [
            15011,
            15012,
            15013
        ],
        "DBNHFOFHBHA": true
    },
    {
        "hp": 10,
        "GOAKKENJPJO": 3,
        "FIHLPNNLKAG": 8170923623067663933,
        "PLJDNGEEPBK": "Switch_Qin",
        "id": 1502,
        "cardType": "GCG_CARD_CHARACTER",
        "nameTextMapHash": 905232227,
        "descTextMapHash": 929989084,
        "LKIILDFIPKC": [
            "GCG_TAG_ELEMENT_ANEMO",
            "GCG_TAG_WEAPON_SWORD",
            "GCG_TAG_NATION_MONDSTADT",
            "GCG_TAG_NONE",
            "GCG_TAG_NONE"
        ],
        "skillList": [
            15021,
            15022,
            15023
        ],
        "DBNHFOFHBHA": true
    },
    {
        "hp": 10,
        "GOAKKENJPJO": 3,
        "FIHLPNNLKAG": 8747557893001790406,
        "PLJDNGEEPBK": "Switch_Ningguang",
        "id": 1601,
        "cardType": "GCG_CARD_CHARACTER",
        "nameTextMapHash": 1378814643,
        "descTextMapHash": 3416520564,
        "LKIILDFIPKC": [
            "GCG_TAG_ELEMENT_GEO",
            "GCG_TAG_WEAPON_CATALYST",
            "GCG_TAG_NATION_LIYUE",
            "GCG_TAG_NONE",
            "GCG_TAG_NONE"
        ],
        "skillList": [
            16011,
            16012,
            16013
        ],
        "DBNHFOFHBHA": true
    },
    {
        "hp": 10,
        "GOAKKENJPJO": 2,
        "FIHLPNNLKAG": 1171834687374874575,
        "PLJDNGEEPBK": "Switch_Noel",
        "id": 1602,
        "cardType": "GCG_CARD_CHARACTER",
        "nameTextMapHash": 1231525899,
        "descTextMapHash": 3318235020,
        "LKIILDFIPKC": [
            "GCG_TAG_ELEMENT_GEO",
            "GCG_TAG_WEAPON_CLAYMORE",
            "GCG_TAG_NATION_MONDSTADT",
            "GCG_TAG_NONE",
            "GCG_TAG_NONE"
        ],
        "skillList": [
            16021,
            16022,
            16023
        ],
        "DBNHFOFHBHA": true
    },
    {
        "hp": 10,
        "GOAKKENJPJO": 2,
        "FIHLPNNLKAG": 16699076929468065149,
        "PLJDNGEEPBK": "Switch_Collei",
        "id": 1701,
        "cardType": "GCG_CARD_CHARACTER",
        "nameTextMapHash": 3932994363,
        "descTextMapHash": 2616746100,
        "LKIILDFIPKC": [
            "GCG_TAG_ELEMENT_DENDRO",
            "GCG_TAG_WEAPON_BOW",
            "GCG_TAG_NATION_SUMERU",
            "GCG_TAG_NONE",
            "GCG_TAG_NONE"
        ],
        "skillList": [
            17011,
            17012,
            17013
        ],
        "DBNHFOFHBHA": true
    },
    {
        "hp": 10,
        "GOAKKENJPJO": 3,
        "FIHLPNNLKAG": 18293653185843198705,
        "PLJDNGEEPBK": "Switch_GCG_Oceanid",
        "id": 2201,
        "cardType": "GCG_CARD_CHARACTER",
        "nameTextMapHash": 561889595,
        "descTextMapHash": 3926501404,
        "LKIILDFIPKC": [
            "GCG_TAG_ELEMENT_HYDRO",
            "GCG_TAG_WEAPON_NONE",
            "GCG_TAG_CAMP_MONSTER",
            "GCG_TAG_NONE",
            "GCG_TAG_NONE"
        ],
        "skillList": [
            22011,
            22012,
            22013,
            22014
        ],
        "DBNHFOFHBHA": true
    },
    {
        "hp": 10,
        "GOAKKENJPJO": 2,
        "FIHLPNNLKAG": 13098430607959965416,
        "PLJDNGEEPBK": "Switch_GCG_Fatuus_Maiden_Water",
        "id": 2202,
        "cardType": "GCG_CARD_CHARACTER",
        "nameTextMapHash": 3261122731,
        "descTextMapHash": 4025654060,
        "LKIILDFIPKC": [
            "GCG_TAG_ELEMENT_HYDRO",
            "GCG_TAG_WEAPON_NONE",
            "GCG_TAG_CAMP_FATUI",
            "GCG_TAG_NONE",
            "GCG_TAG_NONE"
        ],
        "skillList": [
            22021,
            22022,
            22023
        ],
        "DBNHFOFHBHA": true
    },
    {
        "hp": 10,
        "GOAKKENJPJO": 2,
        "FIHLPNNLKAG": 594152246345299671,
        "PLJDNGEEPBK": "Switch_GCG_Fatuus_Fire",
        "id": 2301,
        "cardType": "GCG_CARD_CHARACTER",
        "nameTextMapHash": 998289547,
        "descTextMapHash": 2748479956,
        "LKIILDFIPKC": [
            "GCG_TAG_ELEMENT_PYRO",
            "GCG_TAG_WEAPON_NONE",
            "GCG_TAG_CAMP_FATUI",
            "GCG_TAG_NONE",
            "GCG_TAG_NONE"
        ],
        "skillList": [
            23011,
            23012,
            23013,
            23014
        ],
        "DBNHFOFHBHA": true
    },
    {
        "hp": 10,
        "GOAKKENJPJO": 3,
        "FIHLPNNLKAG": 14170771359015203636,
        "PLJDNGEEPBK": "Switch_GCG_Samurai_Ningyo",
        "id": 2501,
        "cardType": "GCG_CARD_CHARACTER",
        "nameTextMapHash": 2182008747,
        "descTextMapHash": 5360668,
        "LKIILDFIPKC": [
            "GCG_TAG_ELEMENT_ANEMO",
            "GCG_TAG_WEAPON_NONE",
            "GCG_TAG_CAMP_MONSTER",
            "GCG_TAG_NONE",
            "GCG_TAG_NONE"
        ],
        "skillList": [
            25011,
            25012,
            25013,
            25014
        ],
        "DBNHFOFHBHA": true
    },
    {
        "hp": 8,
        "GOAKKENJPJO": 2,
        "FIHLPNNLKAG": 2318588560057997627,
        "PLJDNGEEPBK": "Switch_GCG_Brute_Rock",
        "id": 2601,
        "cardType": "GCG_CARD_CHARACTER",
        "nameTextMapHash": 3546879603,
        "descTextMapHash": 2704545956,
        "LKIILDFIPKC": [
            "GCG_TAG_ELEMENT_GEO",
            "GCG_TAG_WEAPON_NONE",
            "GCG_TAG_CAMP_MONSTER",
            "GCG_TAG_CAMP_HILICHURL",
            "GCG_TAG_NONE"
        ],
        "skillList": [
            26011,
            26012,
            26013,
            26014
        ],
        "DBNHFOFHBHA": true
    },
    {
        "hp": 10,
        "GOAKKENJPJO": 2,
        "FIHLPNNLKAG": 13053027934635320227,
        "PLJDNGEEPBK": "Switch_GCG_Fungus_Raptor_01",
        "id": 2701,
        "cardType": "GCG_CARD_CHARACTER",
        "nameTextMapHash": 2872895355,
        "descTextMapHash": 1184696892,
        "LKIILDFIPKC": [
            "GCG_TAG_ELEMENT_DENDRO",
            "GCG_TAG_WEAPON_NONE",
            "GCG_TAG_CAMP_MONSTER",
            "GCG_TAG_NONE",
            "GCG_TAG_NONE"
        ],
        "skillList": [
            27011,
            27012,
            27013,
            27014
        ],
        "DBNHFOFHBHA": true
    },
    {
        "hp": 4,
        "GOAKKENJPJO": 2,
        "FIHLPNNLKAG": 231415730198791827,
        "PLJDNGEEPBK": "Switch_GCG_Hili_None_01_Club",
        "IGBHFMOKLDO": true,
        "id": 3001,
        "cardType": "GCG_CARD_CHARACTER",
        "nameTextMapHash": 445643323,
        "descTextMapHash": 2795798740,
        "LKIILDFIPKC": [
            "GCG_TAG_ELEMENT_NONE",
            "GCG_TAG_WEAPON_NONE",
            "GCG_TAG_CAMP_MONSTER",
            "GCG_TAG_CAMP_HILICHURL",
            "GCG_TAG_NONE"
        ],
        "skillList": [
            30011,
            30012,
            30013
        ]
    },
    {
        "hp": 3,
        "GOAKKENJPJO": 2,
        "FIHLPNNLKAG": 12785716439325001605,
        "PLJDNGEEPBK": "Switch_GCG_Hili_None_01_Range",
        "IGBHFMOKLDO": true,
        "id": 3002,
        "cardType": "GCG_CARD_CHARACTER",
        "nameTextMapHash": 367329795,
        "descTextMapHash": 1224448316,
        "LKIILDFIPKC": [
            "GCG_TAG_ELEMENT_NONE",
            "GCG_TAG_WEAPON_NONE",
            "GCG_TAG_CAMP_MONSTER",
            "GCG_TAG_CAMP_HILICHURL",
            "GCG_TAG_NONE"
        ],
        "skillList": [
            30021,
            30022,
            30023
        ]
    },
    {
        "hp": 6,
        "GOAKKENJPJO": 2,
        "FIHLPNNLKAG": 8496063335300189216,
        "PLJDNGEEPBK": "Switch_GCG_Samurai_Ronin_01",
        "IGBHFMOKLDO": true,
        "id": 3003,
        "cardType": "GCG_CARD_CHARACTER",
        "nameTextMapHash": 1680265715,
        "descTextMapHash": 3469099612,
        "LKIILDFIPKC": [
            "GCG_TAG_ELEMENT_NONE",
            "GCG_TAG_WEAPON_NONE",
            "GCG_TAG_NONE",
            "GCG_TAG_NONE",
            "GCG_TAG_NONE"
        ],
        "skillList": [
            30031,
            30032,
            30033,
            30034,
            30035,
            30036
        ]
    },
    {
        "hp": 8,
        "GOAKKENJPJO": 2,
        "FIHLPNNLKAG": 5708024656824741222,
        "PLJDNGEEPBK": "Switch_GCG_Brute_Ice_Shield",
        "IGBHFMOKLDO": true,
        "id": 3101,
        "cardType": "GCG_CARD_CHARACTER",
        "nameTextMapHash": 1433725811,
        "descTextMapHash": 275880212,
        "LKIILDFIPKC": [
            "GCG_TAG_ELEMENT_CRYO",
            "GCG_TAG_WEAPON_NONE",
            "GCG_TAG_CAMP_MONSTER",
            "GCG_TAG_CAMP_HILICHURL",
            "GCG_TAG_NONE"
        ],
        "skillList": [
            31011,
            31012,
            31013,
            31014,
            31015
        ]
    },
    {
        "hp": 3,
        "GOAKKENJPJO": 2,
        "FIHLPNNLKAG": 7847183565696936337,
        "PLJDNGEEPBK": "Switch_GCG_Hili_Ice_Range",
        "IGBHFMOKLDO": true,
        "id": 3102,
        "cardType": "GCG_CARD_CHARACTER",
        "nameTextMapHash": 3039609067,
        "descTextMapHash": 51305612,
        "LKIILDFIPKC": [
            "GCG_TAG_ELEMENT_CRYO",
            "GCG_TAG_WEAPON_NONE",
            "GCG_TAG_CAMP_MONSTER",
            "GCG_TAG_CAMP_HILICHURL",
            "GCG_TAG_NONE"
        ],
        "skillList": [
            31021,
            31022,
            31023
        ]
    },
    {
        "hp": 4,
        "GOAKKENJPJO": 2,
        "FIHLPNNLKAG": 16199841921619720212,
        "PLJDNGEEPBK": "Switch_GCG_Abyss_Ice",
        "IGBHFMOKLDO": true,
        "id": 3103,
        "cardType": "GCG_CARD_CHARACTER",
        "nameTextMapHash": 3967696763,
        "descTextMapHash": 3076048284,
        "LKIILDFIPKC": [
            "GCG_TAG_ELEMENT_CRYO",
            "GCG_TAG_WEAPON_NONE",
            "GCG_TAG_CAMP_MONSTER",
            "GCG_TAG_NONE",
            "GCG_TAG_NONE"
        ],
        "skillList": [
            31031,
            31032,
            31033,
            31034,
            31035
        ]
    },
    {
        "hp": 4,
        "GOAKKENJPJO": 3,
        "FIHLPNNLKAG": 3755089429107013832,
        "PLJDNGEEPBK": "Switch_GCG_Abyss_Water",
        "IGBHFMOKLDO": true,
        "id": 3201,
        "cardType": "GCG_CARD_CHARACTER",
        "nameTextMapHash": 870058251,
        "descTextMapHash": 2374900892,
        "LKIILDFIPKC": [
            "GCG_TAG_ELEMENT_HYDRO",
            "GCG_TAG_WEAPON_NONE",
            "GCG_TAG_CAMP_MONSTER",
            "GCG_TAG_NONE",
            "GCG_TAG_NONE"
        ],
        "skillList": [
            32011,
            32012,
            32013,
            32014,
            32015
        ]
    },
    {
        "hp": 4,
        "GOAKKENJPJO": 2,
        "FIHLPNNLKAG": 14052453119473135180,
        "PLJDNGEEPBK": "Switch_GCG_Shaman_Water",
        "IGBHFMOKLDO": true,
        "id": 3202,
        "cardType": "GCG_CARD_CHARACTER",
        "nameTextMapHash": 3820571899,
        "descTextMapHash": 2137762796,
        "LKIILDFIPKC": [
            "GCG_TAG_ELEMENT_HYDRO",
            "GCG_TAG_WEAPON_NONE",
            "GCG_TAG_CAMP_MONSTER",
            "GCG_TAG_CAMP_HILICHURL",
            "GCG_TAG_NONE"
        ],
        "skillList": [
            32021,
            32022,
            32023
        ]
    },
    {
        "hp": 10,
        "GOAKKENJPJO": 3,
        "FIHLPNNLKAG": 2854257632468505389,
        "PLJDNGEEPBK": "Switch_GCG_Skirmisher_SprayGun_Water_01",
        "IGBHFMOKLDO": true,
        "id": 3203,
        "cardType": "GCG_CARD_CHARACTER",
        "nameTextMapHash": 4041719843,
        "descTextMapHash": 742111012,
        "LKIILDFIPKC": [
            "GCG_TAG_ELEMENT_HYDRO",
            "GCG_TAG_WEAPON_NONE",
            "GCG_TAG_CAMP_FATUI",
            "GCG_TAG_NONE",
            "GCG_TAG_NONE"
        ],
        "skillList": [
            32031,
            32032,
            32033,
            32034,
            32035
        ]
    },
    {
        "hp": 4,
        "GOAKKENJPJO": 2,
        "FIHLPNNLKAG": 7379625193456611195,
        "PLJDNGEEPBK": "Switch_GCG_Slime_01",
        "IGBHFMOKLDO": true,
        "id": 3204,
        "cardType": "GCG_CARD_CHARACTER",
        "nameTextMapHash": 127025523,
        "descTextMapHash": 784156164,
        "LKIILDFIPKC": [
            "GCG_TAG_ELEMENT_HYDRO",
            "GCG_TAG_WEAPON_NONE",
            "GCG_TAG_CAMP_MONSTER",
            "GCG_TAG_NONE",
            "GCG_TAG_NONE"
        ],
        "skillList": [
            32041,
            32042,
            32043
        ]
    },
    {
        "hp": 4,
        "GOAKKENJPJO": 3,
        "FIHLPNNLKAG": 7358154299347548005,
        "PLJDNGEEPBK": "Switch_GCG_Abyss_Fire",
        "IGBHFMOKLDO": true,
        "id": 3301,
        "cardType": "GCG_CARD_CHARACTER",
        "nameTextMapHash": 3125253571,
        "descTextMapHash": 2487609396,
        "LKIILDFIPKC": [
            "GCG_TAG_ELEMENT_PYRO",
            "GCG_TAG_WEAPON_NONE",
            "GCG_TAG_CAMP_MONSTER",
            "GCG_TAG_NONE",
            "GCG_TAG_NONE"
        ],
        "skillList": [
            33011,
            33012,
            33013,
            33014,
            33015
        ]
    },
    {
        "hp": 8,
        "GOAKKENJPJO": 2,
        "FIHLPNNLKAG": 14739631257096179769,
        "PLJDNGEEPBK": "Switch_GCG_Brute_None_Axe",
        "IGBHFMOKLDO": true,
        "id": 3302,
        "cardType": "GCG_CARD_CHARACTER",
        "nameTextMapHash": 475125899,
        "descTextMapHash": 3659184828,
        "LKIILDFIPKC": [
            "GCG_TAG_ELEMENT_PYRO",
            "GCG_TAG_WEAPON_NONE",
            "GCG_TAG_CAMP_MONSTER",
            "GCG_TAG_CAMP_HILICHURL",
            "GCG_TAG_NONE"
        ],
        "skillList": [
            33021,
            33022,
            33023,
            33024
        ]
    },
    {
        "hp": 10,
        "GOAKKENJPJO": 2,
        "FIHLPNNLKAG": 653638834155258788,
        "PLJDNGEEPBK": "Switch_GCG_Samurai_Kairagi_Fire_01",
        "IGBHFMOKLDO": true,
        "id": 3303,
        "cardType": "GCG_CARD_CHARACTER",
        "nameTextMapHash": 1411664003,
        "descTextMapHash": 3677711564,
        "LKIILDFIPKC": [
            "GCG_TAG_ELEMENT_PYRO",
            "GCG_TAG_WEAPON_NONE",
            "GCG_TAG_CAMP_KAIRAGI",
            "GCG_TAG_NONE",
            "GCG_TAG_NONE"
        ],
        "skillList": [
            33031,
            33032,
            33033,
            33034,
            33035,
            33036,
            33037
        ]
    },
    {
        "hp": 4,
        "GOAKKENJPJO": 2,
        "FIHLPNNLKAG": 12339553082385429048,
        "PLJDNGEEPBK": "Switch_GCG_Hili_Fire_Rush",
        "IGBHFMOKLDO": true,
        "id": 3304,
        "cardType": "GCG_CARD_CHARACTER",
        "nameTextMapHash": 1065255147,
        "descTextMapHash": 2133306036,
        "LKIILDFIPKC": [
            "GCG_TAG_ELEMENT_PYRO",
            "GCG_TAG_WEAPON_NONE",
            "GCG_TAG_CAMP_MONSTER",
            "GCG_TAG_CAMP_HILICHURL",
            "GCG_TAG_NONE"
        ],
        "skillList": [
            33041,
            33042,
            33043
        ]
    },
    {
        "hp": 6,
        "GOAKKENJPJO": 2,
        "FIHLPNNLKAG": 13998850676465748606,
        "PLJDNGEEPBK": "Switch_GCG_Samurai_Ronin_02",
        "IGBHFMOKLDO": true,
        "id": 3305,
        "cardType": "GCG_CARD_CHARACTER",
        "nameTextMapHash": 814017555,
        "descTextMapHash": 2360852396,
        "LKIILDFIPKC": [
            "GCG_TAG_ELEMENT_PYRO",
            "GCG_TAG_WEAPON_NONE",
            "GCG_TAG_NONE",
            "GCG_TAG_NONE",
            "GCG_TAG_NONE"
        ],
        "skillList": [
            33051,
            33052,
            30033,
            30034,
            30035,
            30036
        ]
    },
    {
        "hp": 10,
        "GOAKKENJPJO": 2,
        "FIHLPNNLKAG": 8274989638496263356,
        "PLJDNGEEPBK": "Switch_GCG_Samurai_Kairagi_Elec_01",
        "IGBHFMOKLDO": true,
        "id": 3401,
        "cardType": "GCG_CARD_CHARACTER",
        "nameTextMapHash": 3279837811,
        "descTextMapHash": 1033941292,
        "LKIILDFIPKC": [
            "GCG_TAG_ELEMENT_ELECTRO",
            "GCG_TAG_WEAPON_NONE",
            "GCG_TAG_CAMP_KAIRAGI",
            "GCG_TAG_NONE",
            "GCG_TAG_NONE"
        ],
        "skillList": [
            34011,
            34012,
            34013,
            34014,
            34015,
            34016,
            34017
        ]
    },
    {
        "hp": 3,
        "GOAKKENJPJO": 2,
        "FIHLPNNLKAG": 12993502838613823367,
        "PLJDNGEEPBK": "Switch_GCG_Hili_Electric_Range",
        "IGBHFMOKLDO": true,
        "id": 3402,
        "cardType": "GCG_CARD_CHARACTER",
        "nameTextMapHash": 882224371,
        "descTextMapHash": 2806824588,
        "LKIILDFIPKC": [
            "GCG_TAG_ELEMENT_ELECTRO",
            "GCG_TAG_WEAPON_NONE",
            "GCG_TAG_CAMP_MONSTER",
            "GCG_TAG_CAMP_HILICHURL",
            "GCG_TAG_NONE"
        ],
        "skillList": [
            34021,
            34022,
            34023
        ]
    },
    {
        "hp": 8,
        "GOAKKENJPJO": 2,
        "FIHLPNNLKAG": 1019105925841935791,
        "PLJDNGEEPBK": "Switch_GCG_Brute_Electric_Axe",
        "IGBHFMOKLDO": true,
        "id": 3403,
        "cardType": "GCG_CARD_CHARACTER",
        "nameTextMapHash": 641631291,
        "descTextMapHash": 3638696012,
        "LKIILDFIPKC": [
            "GCG_TAG_ELEMENT_ELECTRO",
            "GCG_TAG_WEAPON_NONE",
            "GCG_TAG_CAMP_MONSTER",
            "GCG_TAG_CAMP_HILICHURL",
            "GCG_TAG_NONE"
        ],
        "skillList": [
            34031,
            34032,
            34033,
            34034
        ]
    },
    {
        "hp": 6,
        "GOAKKENJPJO": 2,
        "FIHLPNNLKAG": 11866217476764083516,
        "PLJDNGEEPBK": "Switch_GCG_Samurai_Ronin_03",
        "IGBHFMOKLDO": true,
        "id": 3405,
        "cardType": "GCG_CARD_CHARACTER",
        "nameTextMapHash": 1743065499,
        "descTextMapHash": 2017171972,
        "LKIILDFIPKC": [
            "GCG_TAG_ELEMENT_ELECTRO",
            "GCG_TAG_WEAPON_NONE",
            "GCG_TAG_NONE",
            "GCG_TAG_NONE",
            "GCG_TAG_NONE"
        ],
        "skillList": [
            34051,
            34052,
            30033,
            30034,
            30035,
            30036
        ]
    },
    {
        "hp": 4,
        "GOAKKENJPJO": 2,
        "FIHLPNNLKAG": 12187806232398929938,
        "PLJDNGEEPBK": "Switch_GCG_Slime_01",
        "IGBHFMOKLDO": true,
        "id": 3406,
        "cardType": "GCG_CARD_CHARACTER",
        "nameTextMapHash": 2040362227,
        "descTextMapHash": 58248892,
        "LKIILDFIPKC": [
            "GCG_TAG_ELEMENT_ELECTRO",
            "GCG_TAG_WEAPON_NONE",
            "GCG_TAG_CAMP_MONSTER",
            "GCG_TAG_NONE",
            "GCG_TAG_NONE"
        ],
        "skillList": [
            34061,
            34062,
            34063
        ]
    },
    {
        "hp": 4,
        "GOAKKENJPJO": 2,
        "FIHLPNNLKAG": 13855297379093858565,
        "PLJDNGEEPBK": "Switch_GCG_Shaman_Wind",
        "IGBHFMOKLDO": true,
        "id": 3501,
        "cardType": "GCG_CARD_CHARACTER",
        "nameTextMapHash": 2607734283,
        "descTextMapHash": 3875409276,
        "LKIILDFIPKC": [
            "GCG_TAG_ELEMENT_ANEMO",
            "GCG_TAG_WEAPON_NONE",
            "GCG_TAG_CAMP_MONSTER",
            "GCG_TAG_CAMP_HILICHURL",
            "GCG_TAG_NONE"
        ],
        "skillList": [
            35011,
            35012,
            35013
        ]
    },
    {
        "hp": 10,
        "GOAKKENJPJO": 2,
        "FIHLPNNLKAG": 3686037488277262470,
        "PLJDNGEEPBK": "Switch_GCG_Skirmisher_Gloves_Wind_01",
        "IGBHFMOKLDO": true,
        "id": 3502,
        "cardType": "GCG_CARD_CHARACTER",
        "nameTextMapHash": 2278728323,
        "descTextMapHash": 2922065252,
        "LKIILDFIPKC": [
            "GCG_TAG_ELEMENT_ANEMO",
            "GCG_TAG_WEAPON_NONE",
            "GCG_TAG_CAMP_FATUI",
            "GCG_TAG_NONE",
            "GCG_TAG_NONE"
        ],
        "skillList": [
            35021,
            35022,
            35023,
            35024,
            35025
        ]
    },
    {
        "hp": 6,
        "GOAKKENJPJO": 2,
        "FIHLPNNLKAG": 17089745320313514243,
        "PLJDNGEEPBK": "Switch_GCG_Fungus_Unuanudatta_01",
        "IGBHFMOKLDO": true,
        "id": 3701,
        "cardType": "GCG_CARD_CHARACTER",
        "nameTextMapHash": 967730771,
        "descTextMapHash": 401815452,
        "LKIILDFIPKC": [
            "GCG_TAG_ELEMENT_DENDRO",
            "GCG_TAG_WEAPON_NONE",
            "GCG_TAG_CAMP_MONSTER",
            "GCG_TAG_NONE",
            "GCG_TAG_NONE"
        ],
        "skillList": [
            37011,
            37012,
            37013,
            37014
        ]
    },
    {
        "hp": 4,
        "GOAKKENJPJO": 2,
        "FIHLPNNLKAG": 16141136710670020360,
        "PLJDNGEEPBK": "Switch_GCG_Shaman_Grass",
        "IGBHFMOKLDO": true,
        "id": 3703,
        "cardType": "GCG_CARD_CHARACTER",
        "nameTextMapHash": 588793475,
        "descTextMapHash": 1830850092,
        "LKIILDFIPKC": [
            "GCG_TAG_ELEMENT_DENDRO",
            "GCG_TAG_WEAPON_NONE",
            "GCG_TAG_CAMP_MONSTER",
            "GCG_TAG_CAMP_HILICHURL",
            "GCG_TAG_NONE"
        ],
        "skillList": [
            37031,
            37032,
            37033
        ]
    },
    {
        "hp": 12,
        "GOAKKENJPJO": 2,
        "FIHLPNNLKAG": 2318588560057997627,
        "PLJDNGEEPBK": "Switch_GCG_Brute_Rock",
        "IGBHFMOKLDO": true,
        "id": 4601,
        "cardType": "GCG_CARD_CHARACTER",
        "nameTextMapHash": 429032083,
        "descTextMapHash": 3728976644,
        "LKIILDFIPKC": [
            "GCG_TAG_ELEMENT_GEO",
            "GCG_TAG_WEAPON_NONE",
            "GCG_TAG_CAMP_MONSTER",
            "GCG_TAG_CAMP_HILICHURL",
            "GCG_TAG_NONE"
        ],
        "skillList": [
            26011,
            26012,
            26013
        ]
    },
    {
        "hp": 16,
        "GOAKKENJPJO": 2,
        "FIHLPNNLKAG": 2318588560057997627,
        "PLJDNGEEPBK": "Switch_GCG_Brute_Rock",
        "IGBHFMOKLDO": true,
        "id": 4602,
        "cardType": "GCG_CARD_CHARACTER",
        "nameTextMapHash": 264767627,
        "descTextMapHash": 526083292,
        "LKIILDFIPKC": [
            "GCG_TAG_ELEMENT_GEO",
            "GCG_TAG_WEAPON_NONE",
            "GCG_TAG_CAMP_MONSTER",
            "GCG_TAG_CAMP_HILICHURL",
            "GCG_TAG_NONE"
        ],
        "skillList": [
            26011,
            26012,
            26013,
            26014
        ]
    },
    {
        "hp": 24,
        "GOAKKENJPJO": 2,
        "FIHLPNNLKAG": 2318588560057997627,
        "PLJDNGEEPBK": "Switch_GCG_Brute_Rock",
        "IGBHFMOKLDO": true,
        "id": 4603,
        "cardType": "GCG_CARD_CHARACTER",
        "nameTextMapHash": 1991653875,
        "descTextMapHash": 2713030732,
        "LKIILDFIPKC": [
            "GCG_TAG_ELEMENT_GEO",
            "GCG_TAG_WEAPON_NONE",
            "GCG_TAG_CAMP_MONSTER",
            "GCG_TAG_CAMP_HILICHURL",
            "GCG_TAG_NONE"
        ],
        "skillList": [
            26011,
            26012,
            26013,
            26014
        ]
    },
    {
        "hp": 8,
        "GOAKKENJPJO": 2,
        "FIHLPNNLKAG": 2318588560057997627,
        "PLJDNGEEPBK": "Switch_GCG_Brute_Rock",
        "IGBHFMOKLDO": true,
        "id": 4604,
        "cardType": "GCG_CARD_CHARACTER",
        "nameTextMapHash": 1003296507,
        "descTextMapHash": 2550034068,
        "LKIILDFIPKC": [
            "GCG_TAG_ELEMENT_GEO",
            "GCG_TAG_WEAPON_NONE",
            "GCG_TAG_CAMP_MONSTER",
            "GCG_TAG_CAMP_HILICHURL",
            "GCG_TAG_NONE"
        ],
        "skillList": [
            26011,
            26012,
            26013,
            26014
        ]
    },
    {
        "hp": 30,
        "GOAKKENJPJO": 3,
        "FIHLPNNLKAG": 18293653185843198705,
        "PLJDNGEEPBK": "Switch_GCG_Oceanid",
        "IGBHFMOKLDO": true,
        "id": 4201,
        "cardType": "GCG_CARD_CHARACTER",
        "nameTextMapHash": 488561555,
        "descTextMapHash": 3510183884,
        "LKIILDFIPKC": [
            "GCG_TAG_ELEMENT_HYDRO",
            "GCG_TAG_WEAPON_NONE",
            "GCG_TAG_CAMP_MONSTER",
            "GCG_TAG_NONE",
            "GCG_TAG_NONE"
        ],
        "skillList": [
            22011,
            22012,
            22013,
            22014,
            32043
        ]
    },
    {
        "hp": 45,
        "GOAKKENJPJO": 3,
        "FIHLPNNLKAG": 18293653185843198705,
        "PLJDNGEEPBK": "Switch_GCG_Oceanid",
        "IGBHFMOKLDO": true,
        "id": 4202,
        "cardType": "GCG_CARD_CHARACTER",
        "nameTextMapHash": 3118616139,
        "descTextMapHash": 2479264508,
        "LKIILDFIPKC": [
            "GCG_TAG_ELEMENT_HYDRO",
            "GCG_TAG_WEAPON_NONE",
            "GCG_TAG_CAMP_MONSTER",
            "GCG_TAG_NONE",
            "GCG_TAG_NONE"
        ],
        "skillList": [
            22011,
            22012,
            22013,
            22014,
            32043
        ]
    },
    {
        "hp": 10,
        "GOAKKENJPJO": 2,
        "FIHLPNNLKAG": 13098430607959965416,
        "PLJDNGEEPBK": "Switch_GCG_Fatuus_Maiden_Water",
        "IGBHFMOKLDO": true,
        "id": 4203,
        "cardType": "GCG_CARD_CHARACTER",
        "nameTextMapHash": 2446199267,
        "descTextMapHash": 1612038260,
        "LKIILDFIPKC": [
            "GCG_TAG_ELEMENT_HYDRO",
            "GCG_TAG_WEAPON_NONE",
            "GCG_TAG_CAMP_FATUI",
            "GCG_TAG_NONE",
            "GCG_TAG_NONE"
        ],
        "skillList": [
            22021,
            22022,
            22023
        ]
    },
    {
        "hp": 10,
        "GOAKKENJPJO": 2,
        "FIHLPNNLKAG": 13098430607959965416,
        "PLJDNGEEPBK": "Switch_GCG_Fatuus_Maiden_Water",
        "IGBHFMOKLDO": true,
        "id": 4204,
        "cardType": "GCG_CARD_CHARACTER",
        "nameTextMapHash": 3501934123,
        "descTextMapHash": 3292051268,
        "LKIILDFIPKC": [
            "GCG_TAG_ELEMENT_HYDRO",
            "GCG_TAG_WEAPON_NONE",
            "GCG_TAG_CAMP_FATUI",
            "GCG_TAG_NONE",
            "GCG_TAG_NONE"
        ],
        "skillList": [
            22021,
            22022,
            22023
        ]
    },
    {
        "hp": 10,
        "GOAKKENJPJO": 2,
        "FIHLPNNLKAG": 594152246345299671,
        "PLJDNGEEPBK": "Switch_GCG_Fatuus_Fire",
        "IGBHFMOKLDO": true,
        "id": 4301,
        "cardType": "GCG_CARD_CHARACTER",
        "nameTextMapHash": 2276323035,
        "descTextMapHash": 1267117292,
        "LKIILDFIPKC": [
            "GCG_TAG_ELEMENT_PYRO",
            "GCG_TAG_WEAPON_NONE",
            "GCG_TAG_CAMP_FATUI",
            "GCG_TAG_NONE",
            "GCG_TAG_NONE"
        ],
        "skillList": [
            23011,
            23012,
            23013,
            23014
        ]
    },
    {
        "hp": 10,
        "GOAKKENJPJO": 2,
        "FIHLPNNLKAG": 594152246345299671,
        "PLJDNGEEPBK": "Switch_GCG_Fatuus_Fire",
        "IGBHFMOKLDO": true,
        "id": 4302,
        "cardType": "GCG_CARD_CHARACTER",
        "nameTextMapHash": 171916627,
        "descTextMapHash": 3942429276,
        "LKIILDFIPKC": [
            "GCG_TAG_ELEMENT_PYRO",
            "GCG_TAG_WEAPON_NONE",
            "GCG_TAG_CAMP_FATUI",
            "GCG_TAG_NONE",
            "GCG_TAG_NONE"
        ],
        "skillList": [
            23011,
            23012,
            23013,
            23014
        ]
    },
    {
        "hp": 20,
        "GOAKKENJPJO": 3,
        "FIHLPNNLKAG": 14170771359015203636,
        "PLJDNGEEPBK": "Switch_GCG_Samurai_Ningyo",
        "IGBHFMOKLDO": true,
        "id": 4501,
        "cardType": "GCG_CARD_CHARACTER",
        "nameTextMapHash": 3562686859,
        "descTextMapHash": 1063013636,
        "LKIILDFIPKC": [
            "GCG_TAG_ELEMENT_ANEMO",
            "GCG_TAG_WEAPON_NONE",
            "GCG_TAG_CAMP_MONSTER",
            "GCG_TAG_NONE",
            "GCG_TAG_NONE"
        ],
        "skillList": [
            25011,
            25012,
            25013,
            25014
        ]
    },
    {
        "hp": 28,
        "GOAKKENJPJO": 3,
        "FIHLPNNLKAG": 14170771359015203636,
        "PLJDNGEEPBK": "Switch_GCG_Samurai_Ningyo",
        "IGBHFMOKLDO": true,
        "id": 4502,
        "cardType": "GCG_CARD_CHARACTER",
        "nameTextMapHash": 3826554443,
        "descTextMapHash": 363477028,
        "LKIILDFIPKC": [
            "GCG_TAG_ELEMENT_ANEMO",
            "GCG_TAG_WEAPON_NONE",
            "GCG_TAG_CAMP_MONSTER",
            "GCG_TAG_NONE",
            "GCG_TAG_NONE"
        ],
        "skillList": [
            25011,
            25012,
            25013,
            25014
        ]
    },
    {
        "hp": 36,
        "GOAKKENJPJO": 2,
        "FIHLPNNLKAG": 13053027934635320227,
        "PLJDNGEEPBK": "Switch_GCG_Fungus_Raptor_01",
        "IGBHFMOKLDO": true,
        "id": 4701,
        "cardType": "GCG_CARD_CHARACTER",
        "nameTextMapHash": 4164086723,
        "descTextMapHash": 1459990892,
        "LKIILDFIPKC": [
            "GCG_TAG_ELEMENT_DENDRO",
            "GCG_TAG_WEAPON_NONE",
            "GCG_TAG_CAMP_MONSTER",
            "GCG_TAG_NONE",
            "GCG_TAG_NONE"
        ],
        "skillList": [
            27011,
            27012,
            27013,
            27014
        ]
    },
    {
        "hp": 48,
        "GOAKKENJPJO": 2,
        "FIHLPNNLKAG": 13053027934635320227,
        "PLJDNGEEPBK": "Switch_GCG_Fungus_Raptor_01",
        "IGBHFMOKLDO": true,
        "id": 4702,
        "cardType": "GCG_CARD_CHARACTER",
        "nameTextMapHash": 2465712315,
        "descTextMapHash": 3541157252,
        "LKIILDFIPKC": [
            "GCG_TAG_ELEMENT_DENDRO",
            "GCG_TAG_WEAPON_NONE",
            "GCG_TAG_CAMP_MONSTER",
            "GCG_TAG_NONE",
            "GCG_TAG_NONE"
        ],
        "skillList": [
            27011,
            27012,
            27013,
            27014
        ]
    },
    {
        "hp": 10,
        "GOAKKENJPJO": 2,
        "FIHLPNNLKAG": 13053027934635320227,
        "PLJDNGEEPBK": "Switch_GCG_Fungus_Raptor_01",
        "IGBHFMOKLDO": true,
        "id": 4703,
        "cardType": "GCG_CARD_CHARACTER",
        "nameTextMapHash": 1505955163,
        "descTextMapHash": 1592381580,
        "LKIILDFIPKC": [
            "GCG_TAG_ELEMENT_DENDRO",
            "GCG_TAG_WEAPON_NONE",
            "GCG_TAG_CAMP_MONSTER",
            "GCG_TAG_NONE",
            "GCG_TAG_NONE"
        ],
        "skillList": [
            27011,
            27012,
            27013,
            27014
        ]
    },
    {
        "hp": 30,
        "GOAKKENJPJO": 2,
        "FIHLPNNLKAG": 13053027934635320227,
        "PLJDNGEEPBK": "Switch_GCG_Fungus_Raptor_01",
        "IGBHFMOKLDO": true,
        "id": 4704,
        "cardType": "GCG_CARD_CHARACTER",
        "nameTextMapHash": 1132028243,
        "descTextMapHash": 2232040804,
        "LKIILDFIPKC": [
            "GCG_TAG_ELEMENT_DENDRO",
            "GCG_TAG_WEAPON_NONE",
            "GCG_TAG_CAMP_MONSTER",
            "GCG_TAG_NONE",
            "GCG_TAG_NONE"
        ],
        "skillList": [
            27011,
            27012,
            27013,
            27014
        ]
    },
    {
        "hp": 6,
        "GOAKKENJPJO": 3,
        "FIHLPNNLKAG": 3755089429107013832,
        "PLJDNGEEPBK": "Switch_GCG_Abyss_Water",
        "IGBHFMOKLDO": true,
        "id": 5201,
        "cardType": "GCG_CARD_CHARACTER",
        "nameTextMapHash": 4001756827,
        "descTextMapHash": 1263908940,
        "LKIILDFIPKC": [
            "GCG_TAG_ELEMENT_HYDRO",
            "GCG_TAG_WEAPON_NONE",
            "GCG_TAG_CAMP_MONSTER",
            "GCG_TAG_NONE",
            "GCG_TAG_NONE"
        ],
        "skillList": [
            32011,
            32012,
            32013,
            32014,
            32015,
            32016
        ]
    },
    {
        "hp": 6,
        "GOAKKENJPJO": 3,
        "FIHLPNNLKAG": 7358154299347548005,
        "PLJDNGEEPBK": "Switch_GCG_Abyss_Fire",
        "IGBHFMOKLDO": true,
        "id": 5301,
        "cardType": "GCG_CARD_CHARACTER",
        "nameTextMapHash": 3741057515,
        "descTextMapHash": 147560908,
        "LKIILDFIPKC": [
            "GCG_TAG_ELEMENT_PYRO",
            "GCG_TAG_WEAPON_NONE",
            "GCG_TAG_CAMP_MONSTER",
            "GCG_TAG_NONE",
            "GCG_TAG_NONE"
        ],
        "skillList": [
            33011,
            33012,
            33013,
            33014,
            33015,
            33016
        ]
    }
]