[
    {
        "homeBgmId": 101,
        "NBIDHGOOCKD": true,
        "JJMNJMCCOKP": true,
        "cityId": 1,
        "sortOrder": 9990,
        "GEGHMJBJMGB": "StateGroup_musicHomeWorld=State_QG_MD_01",
        "bgmNameTextMapHash": 56602787
    },
    {
        "homeBgmId": 102,
        "NBIDHGOOCKD": true,
        "JJMNJMCCOKP": true,
        "cityId": 1,
        "sortOrder": 9980,
        "GEGHMJBJMGB": "StateGroup_musicHomeWorld=State_QG_MD_02",
        "bgmNameTextMapHash": 2273999003
    },
    {
        "homeBgmId": 103,
        "NBIDHGOOCKD": true,
        "JJMNJMCCOKP": true,
        "cityId": 1,
        "sortOrder": 9970,
        "GEGHMJBJMGB": "StateGroup_musicHomeWorld=State_QG_MD_03",
        "bgmNameTextMapHash": 843262643
    },
    {
        "homeBgmId": 104,
        "NBIDHGOOCKD": true,
        "JJMNJMCCOKP": true,
        "cityId": 1,
        "sortOrder": 9960,
        "GEGHMJBJMGB": "StateGroup_musicHomeWorld=State_QG_MD_04",
        "bgmNameTextMapHash": 2868480155
    },
    {
        "homeBgmId": 105,
        "DMAFAJNKPME": true,
        "NBIDHGOOCKD": true,
        "JJMNJMCCOKP": true,
        "cityId": 1,
        "sortOrder": 9950,
        "GEGHMJBJMGB": "StateGroup_musicHomeWorld=State_QG_MD_05",
        "bgmNameTextMapHash": 4287492683
    },
    {
        "homeBgmId": 106,
        "NBIDHGOOCKD": true,
        "JJMNJMCCOKP": true,
        "cityId": 1,
        "sortOrder": 9940,
        "GEGHMJBJMGB": "StateGroup_musicHomeWorld=State_QG_MD_06",
        "bgmNameTextMapHash": 3166004971
    },
    {
        "homeBgmId": 107,
        "NBIDHGOOCKD": true,
        "JJMNJMCCOKP": true,
        "cityId": 1,
        "sortOrder": 9930,
        "GEGHMJBJMGB": "StateGroup_musicHomeWorld=State_QG_MD_07",
        "bgmNameTextMapHash": 2698754499
    },
    {
        "homeBgmId": 108,
        "NBIDHGOOCKD": true,
        "JJMNJMCCOKP": true,
        "cityId": 1,
        "sortOrder": 9920,
        "GEGHMJBJMGB": "StateGroup_musicHomeWorld=State_QG_MD_08",
        "bgmNameTextMapHash": 1659515451
    },
    {
        "homeBgmId": 109,
        "NBIDHGOOCKD": true,
        "JJMNJMCCOKP": true,
        "cityId": 1,
        "sortOrder": 9910,
        "GEGHMJBJMGB": "StateGroup_musicHomeWorld=State_QG_MD_09",
        "bgmNameTextMapHash": 1960504187
    },
    {
        "homeBgmId": 110,
        "DMAFAJNKPME": true,
        "NBIDHGOOCKD": true,
        "JJMNJMCCOKP": true,
        "cityId": 1,
        "sortOrder": 9900,
        "GEGHMJBJMGB": "StateGroup_musicHomeWorld=State_QG_MD_10",
        "bgmNameTextMapHash": 1425973451
    },
    {
        "homeBgmId": 111,
        "NBIDHGOOCKD": true,
        "JJMNJMCCOKP": true,
        "cityId": 1,
        "sortOrder": 9890,
        "GEGHMJBJMGB": "StateGroup_musicHomeWorld=State_QG_MD_11",
        "bgmNameTextMapHash": 1204807427
    },
    {
        "homeBgmId": 112,
        "NBIDHGOOCKD": true,
        "JJMNJMCCOKP": true,
        "cityId": 1,
        "sortOrder": 9880,
        "GEGHMJBJMGB": "StateGroup_musicHomeWorld=State_QG_MD_12",
        "bgmNameTextMapHash": 133861427
    },
    {
        "homeBgmId": 113,
        "NBIDHGOOCKD": true,
        "JJMNJMCCOKP": true,
        "cityId": 1,
        "sortOrder": 9870,
        "GEGHMJBJMGB": "StateGroup_musicHomeWorld=State_QG_MD_13",
        "bgmNameTextMapHash": 1835568955
    },
    {
        "homeBgmId": 114,
        "NBIDHGOOCKD": true,
        "JJMNJMCCOKP": true,
        "cityId": 1,
        "sortOrder": 9860,
        "GEGHMJBJMGB": "StateGroup_musicHomeWorld=State_QG_MD_14",
        "bgmNameTextMapHash": 1980610099
    },
    {
        "homeBgmId": 115,
        "NBIDHGOOCKD": true,
        "JJMNJMCCOKP": true,
        "cityId": 1,
        "sortOrder": 9850,
        "GEGHMJBJMGB": "StateGroup_musicHomeWorld=State_QG_MD_15",
        "bgmNameTextMapHash": 1439821435
    },
    {
        "homeBgmId": 116,
        "NBIDHGOOCKD": true,
        "JJMNJMCCOKP": true,
        "cityId": 1,
        "sortOrder": 9840,
        "GEGHMJBJMGB": "StateGroup_musicHomeWorld=State_QG_MD_16",
        "bgmNameTextMapHash": 20870771
    },
    {
        "homeBgmId": 117,
        "NBIDHGOOCKD": true,
        "JJMNJMCCOKP": true,
        "cityId": 1,
        "sortOrder": 9830,
        "GEGHMJBJMGB": "StateGroup_musicHomeWorld=State_QG_MD_17",
        "bgmNameTextMapHash": 1215964507
    },
    {
        "homeBgmId": 118,
        "NBIDHGOOCKD": true,
        "JJMNJMCCOKP": true,
        "cityId": 1,
        "sortOrder": 9820,
        "GEGHMJBJMGB": "StateGroup_musicHomeWorld=State_QG_MD_18",
        "bgmNameTextMapHash": 2551750131
    },
    {
        "homeBgmId": 119,
        "NBIDHGOOCKD": true,
        "JJMNJMCCOKP": true,
        "cityId": 1,
        "sortOrder": 9810,
        "GEGHMJBJMGB": "StateGroup_musicHomeWorld=State_QG_MD_19",
        "bgmNameTextMapHash": 3219452899
    },
    {
        "homeBgmId": 120,
        "NBIDHGOOCKD": true,
        "JJMNJMCCOKP": true,
        "cityId": 1,
        "sortOrder": 9800,
        "GEGHMJBJMGB": "StateGroup_musicHomeWorld=State_QG_MD_20",
        "bgmNameTextMapHash": 108074827
    },
    {
        "homeBgmId": 121,
        "DMAFAJNKPME": true,
        "NBIDHGOOCKD": true,
        "JJMNJMCCOKP": true,
        "cityId": 1,
        "sortOrder": 9790,
        "GEGHMJBJMGB": "StateGroup_musicHomeWorld=State_QG_MD_21",
        "bgmNameTextMapHash": 1067043195
    },
    {
        "homeBgmId": 122,
        "NBIDHGOOCKD": true,
        "JJMNJMCCOKP": true,
        "cityId": 1,
        "sortOrder": 9780,
        "GEGHMJBJMGB": "StateGroup_musicHomeWorld=State_QG_MD_22",
        "bgmNameTextMapHash": 1504764627
    },
    {
        "homeBgmId": 123,
        "NBIDHGOOCKD": true,
        "JJMNJMCCOKP": true,
        "cityId": 1,
        "sortOrder": 9770,
        "GEGHMJBJMGB": "StateGroup_musicHomeWorld=State_QG_MD_23",
        "bgmNameTextMapHash": 1386957739
    },
    {
        "homeBgmId": 124,
        "NBIDHGOOCKD": true,
        "JJMNJMCCOKP": true,
        "cityId": 1,
        "sortOrder": 9760,
        "GEGHMJBJMGB": "StateGroup_musicHomeWorld=State_QG_MD_24",
        "bgmNameTextMapHash": 3486023355
    },
    {
        "homeBgmId": 125,
        "NBIDHGOOCKD": true,
        "JJMNJMCCOKP": true,
        "cityId": 1,
        "sortOrder": 9750,
        "GEGHMJBJMGB": "StateGroup_musicHomeWorld=State_QG_MD_25",
        "bgmNameTextMapHash": 3096426067
    },
    {
        "homeBgmId": 126,
        "NBIDHGOOCKD": true,
        "JJMNJMCCOKP": true,
        "cityId": 1,
        "sortOrder": 9740,
        "GEGHMJBJMGB": "StateGroup_musicHomeWorld=State_QG_MD_26",
        "bgmNameTextMapHash": 4158644563
    },
    {
        "homeBgmId": 201,
        "DMAFAJNKPME": true,
        "NBIDHGOOCKD": true,
        "JJMNJMCCOKP": true,
        "cityId": 2,
        "sortOrder": 8990,
        "GEGHMJBJMGB": "StateGroup_musicHomeWorld=State_QG_LY_01",
        "bgmNameTextMapHash": 3327668835
    },
    {
        "homeBgmId": 202,
        "DMAFAJNKPME": true,
        "NBIDHGOOCKD": true,
        "JJMNJMCCOKP": true,
        "cityId": 2,
        "sortOrder": 8980,
        "GEGHMJBJMGB": "StateGroup_musicHomeWorld=State_QG_LY_02",
        "bgmNameTextMapHash": 1864344987
    },
    {
        "homeBgmId": 203,
        "NBIDHGOOCKD": true,
        "JJMNJMCCOKP": true,
        "cityId": 2,
        "sortOrder": 8970,
        "GEGHMJBJMGB": "StateGroup_musicHomeWorld=State_QG_LY_03",
        "bgmNameTextMapHash": 1103254139
    },
    {
        "homeBgmId": 204,
        "NBIDHGOOCKD": true,
        "JJMNJMCCOKP": true,
        "cityId": 2,
        "sortOrder": 8960,
        "GEGHMJBJMGB": "StateGroup_musicHomeWorld=State_QG_LY_04",
        "bgmNameTextMapHash": 3909279595
    },
    {
        "homeBgmId": 205,
        "NBIDHGOOCKD": true,
        "JJMNJMCCOKP": true,
        "cityId": 2,
        "sortOrder": 8950,
        "GEGHMJBJMGB": "StateGroup_musicHomeWorld=State_QG_LY_05",
        "bgmNameTextMapHash": 829832907
    },
    {
        "homeBgmId": 206,
        "NBIDHGOOCKD": true,
        "JJMNJMCCOKP": true,
        "cityId": 2,
        "sortOrder": 8940,
        "GEGHMJBJMGB": "StateGroup_musicHomeWorld=State_QG_LY_06",
        "bgmNameTextMapHash": 2181671027
    },
    {
        "homeBgmId": 207,
        "NBIDHGOOCKD": true,
        "JJMNJMCCOKP": true,
        "cityId": 2,
        "sortOrder": 8930,
        "GEGHMJBJMGB": "StateGroup_musicHomeWorld=State_QG_LY_07",
        "bgmNameTextMapHash": 1537936435
    },
    {
        "homeBgmId": 208,
        "NBIDHGOOCKD": true,
        "JJMNJMCCOKP": true,
        "cityId": 2,
        "sortOrder": 8920,
        "GEGHMJBJMGB": "StateGroup_musicHomeWorld=State_QG_LY_08",
        "bgmNameTextMapHash": 2662162211
    },
    {
        "homeBgmId": 209,
        "NBIDHGOOCKD": true,
        "JJMNJMCCOKP": true,
        "cityId": 2,
        "sortOrder": 8910,
        "GEGHMJBJMGB": "StateGroup_musicHomeWorld=State_QG_LY_09",
        "bgmNameTextMapHash": 1000189587
    },
    {
        "homeBgmId": 210,
        "NBIDHGOOCKD": true,
        "JJMNJMCCOKP": true,
        "cityId": 2,
        "sortOrder": 8900,
        "GEGHMJBJMGB": "StateGroup_musicHomeWorld=State_QG_LY_10",
        "bgmNameTextMapHash": 3644152587
    },
    {
        "homeBgmId": 211,
        "NBIDHGOOCKD": true,
        "JJMNJMCCOKP": true,
        "cityId": 2,
        "sortOrder": 8890,
        "GEGHMJBJMGB": "StateGroup_musicHomeWorld=State_QG_LY_11",
        "bgmNameTextMapHash": 3857912795
    },
    {
        "homeBgmId": 212,
        "NBIDHGOOCKD": true,
        "JJMNJMCCOKP": true,
        "cityId": 2,
        "sortOrder": 8880,
        "GEGHMJBJMGB": "StateGroup_musicHomeWorld=State_QG_LY_12",
        "bgmNameTextMapHash": 3825905491
    },
    {
        "homeBgmId": 213,
        "NBIDHGOOCKD": true,
        "JJMNJMCCOKP": true,
        "cityId": 2,
        "sortOrder": 8870,
        "GEGHMJBJMGB": "StateGroup_musicHomeWorld=State_QG_LY_13",
        "bgmNameTextMapHash": 3202005275
    },
    {
        "homeBgmId": 214,
        "NBIDHGOOCKD": true,
        "JJMNJMCCOKP": true,
        "cityId": 2,
        "sortOrder": 8860,
        "GEGHMJBJMGB": "StateGroup_musicHomeWorld=State_QG_LY_14",
        "bgmNameTextMapHash": 3168267811
    },
    {
        "homeBgmId": 215,
        "NBIDHGOOCKD": true,
        "JJMNJMCCOKP": true,
        "cityId": 2,
        "sortOrder": 8850,
        "GEGHMJBJMGB": "StateGroup_musicHomeWorld=State_QG_LY_15",
        "bgmNameTextMapHash": 156455291
    },
    {
        "homeBgmId": 216,
        "NBIDHGOOCKD": true,
        "JJMNJMCCOKP": true,
        "cityId": 2,
        "sortOrder": 8840,
        "GEGHMJBJMGB": "StateGroup_musicHomeWorld=State_QG_LY_16",
        "bgmNameTextMapHash": 148739835
    },
    {
        "homeBgmId": 217,
        "NBIDHGOOCKD": true,
        "JJMNJMCCOKP": true,
        "cityId": 2,
        "sortOrder": 8830,
        "GEGHMJBJMGB": "StateGroup_musicHomeWorld=State_QG_LY_17",
        "bgmNameTextMapHash": 1862253355
    },
    {
        "homeBgmId": 218,
        "NBIDHGOOCKD": true,
        "JJMNJMCCOKP": true,
        "cityId": 2,
        "sortOrder": 8820,
        "GEGHMJBJMGB": "StateGroup_musicHomeWorld=State_QG_LY_18",
        "bgmNameTextMapHash": 2127560763
    },
    {
        "homeBgmId": 219,
        "NBIDHGOOCKD": true,
        "JJMNJMCCOKP": true,
        "cityId": 2,
        "sortOrder": 8810,
        "GEGHMJBJMGB": "StateGroup_musicHomeWorld=State_QG_LY_19",
        "bgmNameTextMapHash": 884992291
    },
    {
        "homeBgmId": 220,
        "NBIDHGOOCKD": true,
        "JJMNJMCCOKP": true,
        "cityId": 2,
        "sortOrder": 8800,
        "GEGHMJBJMGB": "StateGroup_musicHomeWorld=State_QG_LY_20",
        "bgmNameTextMapHash": 2613645219
    },
    {
        "homeBgmId": 221,
        "NBIDHGOOCKD": true,
        "JJMNJMCCOKP": true,
        "cityId": 2,
        "sortOrder": 8790,
        "GEGHMJBJMGB": "StateGroup_musicHomeWorld=State_QG_LY_21",
        "bgmNameTextMapHash": 1273647571
    },
    {
        "homeBgmId": 222,
        "NBIDHGOOCKD": true,
        "JJMNJMCCOKP": true,
        "cityId": 2,
        "sortOrder": 8780,
        "GEGHMJBJMGB": "StateGroup_musicHomeWorld=State_QG_LY_22",
        "bgmNameTextMapHash": 419857859
    },
    {
        "homeBgmId": 223,
        "NBIDHGOOCKD": true,
        "JJMNJMCCOKP": true,
        "cityId": 2,
        "sortOrder": 8770,
        "GEGHMJBJMGB": "StateGroup_musicHomeWorld=State_QG_LY_23",
        "bgmNameTextMapHash": 1288571547
    },
    {
        "homeBgmId": 224,
        "NBIDHGOOCKD": true,
        "JJMNJMCCOKP": true,
        "cityId": 2,
        "sortOrder": 8760,
        "GEGHMJBJMGB": "StateGroup_musicHomeWorld=State_QG_LY_24",
        "bgmNameTextMapHash": 2777533827
    },
    {
        "homeBgmId": 225,
        "DMAFAJNKPME": true,
        "NBIDHGOOCKD": true,
        "JJMNJMCCOKP": true,
        "cityId": 2,
        "sortOrder": 8750,
        "GEGHMJBJMGB": "StateGroup_musicHomeWorld=State_QG_LY_25",
        "bgmNameTextMapHash": 3805948171
    },
    {
        "homeBgmId": 226,
        "NBIDHGOOCKD": true,
        "JJMNJMCCOKP": true,
        "cityId": 2,
        "sortOrder": 8740,
        "GEGHMJBJMGB": "StateGroup_musicHomeWorld=State_QG_LY_26",
        "bgmNameTextMapHash": 970794387
    },
    {
        "homeBgmId": 301,
        "NBIDHGOOCKD": true,
        "JJMNJMCCOKP": true,
        "cityId": 3,
        "sortOrder": 7990,
        "GEGHMJBJMGB": "StateGroup_musicHomeWorld=State_QG_DQ_01",
        "bgmNameTextMapHash": 3949469995
    },
    {
        "homeBgmId": 302,
        "NBIDHGOOCKD": true,
        "JJMNJMCCOKP": true,
        "cityId": 3,
        "sortOrder": 7980,
        "GEGHMJBJMGB": "StateGroup_musicHomeWorld=State_QG_DQ_02",
        "bgmNameTextMapHash": 789569171
    },
    {
        "homeBgmId": 303,
        "NBIDHGOOCKD": true,
        "JJMNJMCCOKP": true,
        "cityId": 3,
        "sortOrder": 7970,
        "GEGHMJBJMGB": "StateGroup_musicHomeWorld=State_QG_DQ_03",
        "bgmNameTextMapHash": 1019429923
    },
    {
        "homeBgmId": 304,
        "NBIDHGOOCKD": true,
        "JJMNJMCCOKP": true,
        "cityId": 3,
        "sortOrder": 7960,
        "GEGHMJBJMGB": "StateGroup_musicHomeWorld=State_QG_DQ_04",
        "bgmNameTextMapHash": 2305394579
    },
    {
        "homeBgmId": 305,
        "NBIDHGOOCKD": true,
        "JJMNJMCCOKP": true,
        "cityId": 3,
        "sortOrder": 7950,
        "GEGHMJBJMGB": "StateGroup_musicHomeWorld=State_QG_DQ_05",
        "bgmNameTextMapHash": 2832391843
    },
    {
        "homeBgmId": 306,
        "NBIDHGOOCKD": true,
        "JJMNJMCCOKP": true,
        "cityId": 3,
        "sortOrder": 7940,
        "GEGHMJBJMGB": "StateGroup_musicHomeWorld=State_QG_DQ_06",
        "bgmNameTextMapHash": 2029109571
    },
    {
        "homeBgmId": 307,
        "NBIDHGOOCKD": true,
        "JJMNJMCCOKP": true,
        "cityId": 3,
        "sortOrder": 7930,
        "GEGHMJBJMGB": "StateGroup_musicHomeWorld=State_QG_DQ_07",
        "bgmNameTextMapHash": 1263480555
    },
    {
        "homeBgmId": 308,
        "NBIDHGOOCKD": true,
        "JJMNJMCCOKP": true,
        "cityId": 3,
        "sortOrder": 7920,
        "GEGHMJBJMGB": "StateGroup_musicHomeWorld=State_QG_DQ_08",
        "bgmNameTextMapHash": 3346303323
    },
    {
        "homeBgmId": 309,
        "NBIDHGOOCKD": true,
        "JJMNJMCCOKP": true,
        "cityId": 3,
        "sortOrder": 7910,
        "GEGHMJBJMGB": "StateGroup_musicHomeWorld=State_QG_DQ_09",
        "bgmNameTextMapHash": 1308799723
    },
    {
        "homeBgmId": 310,
        "NBIDHGOOCKD": true,
        "JJMNJMCCOKP": true,
        "cityId": 3,
        "sortOrder": 7900,
        "GEGHMJBJMGB": "StateGroup_musicHomeWorld=State_QG_DQ_10",
        "bgmNameTextMapHash": 3924063195
    },
    {
        "homeBgmId": 311,
        "NBIDHGOOCKD": true,
        "JJMNJMCCOKP": true,
        "cityId": 3,
        "sortOrder": 7890,
        "GEGHMJBJMGB": "StateGroup_musicHomeWorld=State_QG_DQ_11",
        "bgmNameTextMapHash": 427881003
    },
    {
        "homeBgmId": 312,
        "NBIDHGOOCKD": true,
        "JJMNJMCCOKP": true,
        "cityId": 3,
        "sortOrder": 7880,
        "GEGHMJBJMGB": "StateGroup_musicHomeWorld=State_QG_DQ_12",
        "bgmNameTextMapHash": 3455957779
    },
    {
        "homeBgmId": 313,
        "NBIDHGOOCKD": true,
        "JJMNJMCCOKP": true,
        "cityId": 3,
        "sortOrder": 7870,
        "GEGHMJBJMGB": "StateGroup_musicHomeWorld=State_QG_DQ_13",
        "bgmNameTextMapHash": 1875892715
    },
    {
        "homeBgmId": 314,
        "NBIDHGOOCKD": true,
        "JJMNJMCCOKP": true,
        "cityId": 3,
        "sortOrder": 7860,
        "GEGHMJBJMGB": "StateGroup_musicHomeWorld=State_QG_DQ_14",
        "bgmNameTextMapHash": 3743394083
    },
    {
        "homeBgmId": 315,
        "NBIDHGOOCKD": true,
        "JJMNJMCCOKP": true,
        "cityId": 3,
        "sortOrder": 7850,
        "GEGHMJBJMGB": "StateGroup_musicHomeWorld=State_QG_DQ_15",
        "bgmNameTextMapHash": 2824356251
    },
    {
        "homeBgmId": 316,
        "NBIDHGOOCKD": true,
        "JJMNJMCCOKP": true,
        "cityId": 3,
        "sortOrder": 7840,
        "GEGHMJBJMGB": "StateGroup_musicHomeWorld=State_QG_DQ_16",
        "bgmNameTextMapHash": 1769967067
    },
    {
        "homeBgmId": 317,
        "NBIDHGOOCKD": true,
        "JJMNJMCCOKP": true,
        "cityId": 3,
        "sortOrder": 7830,
        "GEGHMJBJMGB": "StateGroup_musicHomeWorld=State_QG_DQ_17",
        "bgmNameTextMapHash": 3234486683
    },
    {
        "homeBgmId": 318,
        "NBIDHGOOCKD": true,
        "JJMNJMCCOKP": true,
        "cityId": 3,
        "sortOrder": 7820,
        "GEGHMJBJMGB": "StateGroup_musicHomeWorld=State_QG_DQ_18",
        "bgmNameTextMapHash": 3422133947
    },
    {
        "homeBgmId": 319,
        "NBIDHGOOCKD": true,
        "JJMNJMCCOKP": true,
        "cityId": 3,
        "sortOrder": 7810,
        "GEGHMJBJMGB": "StateGroup_musicHomeWorld=State_QG_DQ_19",
        "bgmNameTextMapHash": 2002316867
    },
    {
        "homeBgmId": 320,
        "NBIDHGOOCKD": true,
        "JJMNJMCCOKP": true,
        "cityId": 3,
        "sortOrder": 7800,
        "GEGHMJBJMGB": "StateGroup_musicHomeWorld=State_QG_DQ_20",
        "bgmNameTextMapHash": 4178824459
    },
    {
        "homeBgmId": 321,
        "NBIDHGOOCKD": true,
        "JJMNJMCCOKP": true,
        "cityId": 3,
        "sortOrder": 7790,
        "GEGHMJBJMGB": "StateGroup_musicHomeWorld=State_QG_DQ_21",
        "bgmNameTextMapHash": 293982859
    },
    {
        "homeBgmId": 322,
        "NBIDHGOOCKD": true,
        "JJMNJMCCOKP": true,
        "cityId": 3,
        "sortOrder": 7780,
        "GEGHMJBJMGB": "StateGroup_musicHomeWorld=State_QG_DQ_22",
        "bgmNameTextMapHash": 2860115467
    },
    {
        "homeBgmId": 323,
        "NBIDHGOOCKD": true,
        "JJMNJMCCOKP": true,
        "cityId": 3,
        "sortOrder": 7770,
        "GEGHMJBJMGB": "StateGroup_musicHomeWorld=State_QG_DQ_23",
        "bgmNameTextMapHash": 509923787
    },
    {
        "homeBgmId": 324,
        "NBIDHGOOCKD": true,
        "JJMNJMCCOKP": true,
        "cityId": 3,
        "sortOrder": 7760,
        "GEGHMJBJMGB": "StateGroup_musicHomeWorld=State_QG_DQ_24",
        "bgmNameTextMapHash": 119978155
    },
    {
        "homeBgmId": 325,
        "NBIDHGOOCKD": true,
        "JJMNJMCCOKP": true,
        "cityId": 3,
        "sortOrder": 7750,
        "GEGHMJBJMGB": "StateGroup_musicHomeWorld=State_QG_DQ_25",
        "bgmNameTextMapHash": 1984713459
    },
    {
        "homeBgmId": 326,
        "NBIDHGOOCKD": true,
        "JJMNJMCCOKP": true,
        "cityId": 3,
        "sortOrder": 7740,
        "GEGHMJBJMGB": "StateGroup_musicHomeWorld=State_QG_DQ_26",
        "bgmNameTextMapHash": 1151101619
    },
    {
        "homeBgmId": 401,
        "NBIDHGOOCKD": true,
        "JJMNJMCCOKP": true,
        "cityId": 4,
        "sortOrder": 6990,
        "GEGHMJBJMGB": "StateGroup_musicHomeWorld=State_QG_XM_01",
        "bgmNameTextMapHash": 11955387
    },
    {
        "homeBgmId": 402,
        "NBIDHGOOCKD": true,
        "JJMNJMCCOKP": true,
        "cityId": 4,
        "sortOrder": 6980,
        "GEGHMJBJMGB": "StateGroup_musicHomeWorld=State_QG_XM_02",
        "bgmNameTextMapHash": 438041763
    },
    {
        "homeBgmId": 403,
        "NBIDHGOOCKD": true,
        "JJMNJMCCOKP": true,
        "cityId": 4,
        "sortOrder": 6970,
        "GEGHMJBJMGB": "StateGroup_musicHomeWorld=State_QG_XM_03",
        "bgmNameTextMapHash": 3727020539
    },
    {
        "homeBgmId": 404,
        "NBIDHGOOCKD": true,
        "JJMNJMCCOKP": true,
        "cityId": 4,
        "sortOrder": 6960,
        "GEGHMJBJMGB": "StateGroup_musicHomeWorld=State_QG_XM_04",
        "bgmNameTextMapHash": 2087915795
    },
    {
        "homeBgmId": 405,
        "NBIDHGOOCKD": true,
        "JJMNJMCCOKP": true,
        "cityId": 4,
        "sortOrder": 6950,
        "GEGHMJBJMGB": "StateGroup_musicHomeWorld=State_QG_XM_05",
        "bgmNameTextMapHash": 3255008811
    },
    {
        "homeBgmId": 406,
        "NBIDHGOOCKD": true,
        "JJMNJMCCOKP": true,
        "cityId": 4,
        "sortOrder": 6940,
        "GEGHMJBJMGB": "StateGroup_musicHomeWorld=State_QG_XM_06",
        "bgmNameTextMapHash": 3092829427
    },
    {
        "homeBgmId": 407,
        "NBIDHGOOCKD": true,
        "JJMNJMCCOKP": true,
        "cityId": 4,
        "sortOrder": 6930,
        "GEGHMJBJMGB": "StateGroup_musicHomeWorld=State_QG_XM_07",
        "bgmNameTextMapHash": 768862435
    },
    {
        "homeBgmId": 408,
        "NBIDHGOOCKD": true,
        "JJMNJMCCOKP": true,
        "cityId": 4,
        "sortOrder": 6920,
        "GEGHMJBJMGB": "StateGroup_musicHomeWorld=State_QG_XM_08",
        "bgmNameTextMapHash": 1288036123
    },
    {
        "homeBgmId": 409,
        "NBIDHGOOCKD": true,
        "JJMNJMCCOKP": true,
        "cityId": 4,
        "sortOrder": 6910,
        "GEGHMJBJMGB": "StateGroup_musicHomeWorld=State_QG_XM_09",
        "bgmNameTextMapHash": 920412451
    },
    {
        "homeBgmId": 410,
        "NBIDHGOOCKD": true,
        "JJMNJMCCOKP": true,
        "cityId": 4,
        "sortOrder": 6900,
        "GEGHMJBJMGB": "StateGroup_musicHomeWorld=State_QG_XM_10",
        "bgmNameTextMapHash": 1324156531
    },
    {
        "homeBgmId": 411,
        "NBIDHGOOCKD": true,
        "JJMNJMCCOKP": true,
        "cityId": 4,
        "sortOrder": 6890,
        "GEGHMJBJMGB": "StateGroup_musicHomeWorld=State_QG_XM_11",
        "bgmNameTextMapHash": 2455154715
    },
    {
        "homeBgmId": 412,
        "NBIDHGOOCKD": true,
        "JJMNJMCCOKP": true,
        "cityId": 4,
        "sortOrder": 6880,
        "GEGHMJBJMGB": "StateGroup_musicHomeWorld=State_QG_XM_12",
        "bgmNameTextMapHash": 1926650419
    },
    {
        "homeBgmId": 413,
        "NBIDHGOOCKD": true,
        "JJMNJMCCOKP": true,
        "cityId": 4,
        "sortOrder": 6870,
        "GEGHMJBJMGB": "StateGroup_musicHomeWorld=State_QG_XM_13",
        "bgmNameTextMapHash": 3992022291
    },
    {
        "homeBgmId": 414,
        "NBIDHGOOCKD": true,
        "JJMNJMCCOKP": true,
        "cityId": 4,
        "sortOrder": 6860,
        "GEGHMJBJMGB": "StateGroup_musicHomeWorld=State_QG_XM_14",
        "bgmNameTextMapHash": 1289537931
    },
    {
        "homeBgmId": 415,
        "NBIDHGOOCKD": true,
        "JJMNJMCCOKP": true,
        "cityId": 4,
        "sortOrder": 6850,
        "GEGHMJBJMGB": "StateGroup_musicHomeWorld=State_QG_XM_15",
        "bgmNameTextMapHash": 139290987
    },
    {
        "homeBgmId": 416,
        "NBIDHGOOCKD": true,
        "JJMNJMCCOKP": true,
        "cityId": 4,
        "sortOrder": 6840,
        "GEGHMJBJMGB": "StateGroup_musicHomeWorld=State_QG_XM_16",
        "bgmNameTextMapHash": 963041395
    },
    {
        "homeBgmId": 417,
        "NBIDHGOOCKD": true,
        "JJMNJMCCOKP": true,
        "cityId": 4,
        "sortOrder": 6830,
        "GEGHMJBJMGB": "StateGroup_musicHomeWorld=State_QG_XM_17",
        "bgmNameTextMapHash": 1820453339
    },
    {
        "homeBgmId": 418,
        "NBIDHGOOCKD": true,
        "JJMNJMCCOKP": true,
        "cityId": 4,
        "sortOrder": 6820,
        "GEGHMJBJMGB": "StateGroup_musicHomeWorld=State_QG_XM_18",
        "bgmNameTextMapHash": 1489559659
    },
    {
        "homeBgmId": 419,
        "NBIDHGOOCKD": true,
        "JJMNJMCCOKP": true,
        "cityId": 4,
        "sortOrder": 6810,
        "GEGHMJBJMGB": "StateGroup_musicHomeWorld=State_QG_XM_19",
        "bgmNameTextMapHash": 2561834051
    },
    {
        "homeBgmId": 420,
        "NBIDHGOOCKD": true,
        "JJMNJMCCOKP": true,
        "cityId": 4,
        "sortOrder": 6800,
        "GEGHMJBJMGB": "StateGroup_musicHomeWorld=State_QG_XM_20",
        "bgmNameTextMapHash": 4046835059
    },
    {
        "homeBgmId": 421,
        "NBIDHGOOCKD": true,
        "JJMNJMCCOKP": true,
        "cityId": 4,
        "sortOrder": 6790,
        "GEGHMJBJMGB": "StateGroup_musicHomeWorld=State_QG_XM_21",
        "bgmNameTextMapHash": 1644529339
    }
]